{
  "hints": [],
  "groups": [
    {
      "sourceType": "com.fndsoft.autodeploy.config.ssh.SSHProperties",
      "name": "ssh",
      "type": "com.fndsoft.autodeploy.config.ssh.SSHProperties"
    },
    {
      "sourceType": "com.fndsoft.autodeploy.config.custom.GlobalProperties",
      "name": "global",
      "type": "com.fndsoft.autodeploy.config.custom.GlobalProperties"
    }
  ],
  "properties": [
    {
      "sourceType": "com.fndsoft.autodeploy.config.ssh.SSHProperties",
      "defaultValue": "",
      "name": "ssh.ipAddress",
      "description": "远端服务器IP地址",
      "type": "java.lang.String"
    },
    {
      "sourceType": "com.fndsoft.autodeploy.config.ssh.SSHProperties",
      "defaultValue": "",
      "name": "ssh.username",
      "description": "远端服务器用户名",
      "type": "java.lang.String"
    },
    {
      "sourceType": "com.fndsoft.autodeploy.config.ssh.SSHProperties",
      "defaultValue": "",
      "name": "ssh.password",
      "description": "远端服务器密码",
      "type": "java.lang.String"
    },
    {
      "sourceType": "com.fndsoft.autodeploy.config.ssh.SSHProperties",
      "defaultValue": "",
      "name": "ssh.publicKey",
      "description": "远端服务器密码公钥",
      "type": "java.lang.String"
    },
    {
      "sourceType": "com.fndsoft.autodeploy.config.ssh.SSHProperties",
      "defaultValue": "",
      "name": "ssh.maxSize",
      "description": "远端服务器最大连接",
      "type": "java.lang.Integer"
    },
    {
      "sourceType": "com.fndsoft.autodeploy.config.ssh.SSHProperties",
      "defaultValue": "",
      "name": "ssh.sshPort",
      "description": "远端服务器连接端口",
      "type": "java.lang.Integer"
    },
    {
      "sourceType": "com.fndsoft.autodeploy.config.ssh.SSHProperties",
      "defaultValue": "",
      "name": "ssh.timeout",
      "description": "远端服务器连接超时时间（秒）",
      "type": "java.lang.Integer"
    },
    {
      "sourceType": "com.fndsoft.autodeploy.config.ssh.SSHProperties",
      "name": "ssh.sshInfo",
      "description": "多服务器配置",
      "type": "java.util.Map<java.lang.String, com.fndsoft.autodeploy.config.ssh.SSHProperties.SSHInfo>"
    },
    {
      "sourceType": "com.fndsoft.autodeploy.config.custom.GlobalProperties",
      "defaultValue": "",
      "name": "global.defaultUser",
      "description": "系统默认用户",
      "type": "java.lang.String"
    },
    {
      "sourceType": "com.fndsoft.autodeploy.config.custom.GlobalProperties",
      "defaultValue": "",
      "name": "global.homePath",
      "description": "系统家目录",
      "type": "java.lang.String"
    }
  ]
}