{
  "home": {
    "autodeploy":{
      "users":{
        "path":"/users"
      },
      "plugins":{
        "path":"/plugins"
      },
      "workspace":{
        "path":"/workspace"
      },
      "nodes":{
        "path":"/nodes"
      },
      "secrets":{
        "path":"/secrets",
        "initPasswordFile":"initPassword",
        "password":"password"
      }
    }
  },
  "user":{
    "username":"admin",
    "status":"U"
  }
}